…
-   Created a tibble named `housingNumeric` which contained all of the
    numeric variables from the original data using the `dplyr::select`
    command along with the `is.numeric` function

``` r
housingNumeric <- housingData %>%
  #selecting all the numeric data
  dplyr::select_if(is.numeric) %>%
  #converting the dataframe to tibble
  as_tibble()

housingNumeric
```

    ## # A tibble: 1,000 × 39
    ##       Id MSSub…¹ LotFr…² LotArea Overa…³ Overa…⁴ YearB…⁵ YearR…⁶ MasVn…⁷ BsmtF…⁸
    ##    <int>   <int>   <int>   <int>   <int>   <int>   <int>   <int>   <int>   <int>
    ##  1     1      20      NA   11000       5       6    1966    1966     200     740
    ##  2     2      20      NA   36500       5       5    1964    1964     621     812
    ##  3     3      20      57    9764       5       7    1967    2003       0     702
    ##  4     4      70      NA    7500       6       7    1942    1950       0     547
    ##  5     5      20      80    9200       6       6    1965    1965       0     892
    ##  6     6      60      72   11317       7       5    2003    2003     101       0
    ##  7     7      20      80    8480       5       6    1963    1963       0     630
    ##  8     8      70      65   11700       7       7    1880    2003       0       0
    ##  9     9      60      80    9760       6       6    1964    1964     360     674
    ## 10    10      60      93   10261       6       5    2000    2000     318       0
    ## # … with 990 more rows, 29 more variables: BsmtFinSF2 <int>, BsmtUnfSF <int>,
    ## #   TotalBsmtSF <int>, X1stFlrSF <int>, X2ndFlrSF <int>, LowQualFinSF <int>,
    ## #   GrLivArea <int>, BsmtFullBath <int>, BsmtHalfBath <int>, FullBath <int>,
    ## #   HalfBath <int>, BedroomAbvGr <int>, KitchenAbvGr <int>, TotRmsAbvGrd <int>,
    ## #   Fireplaces <int>, GarageYrBlt <int>, GarageCars <int>, GarageArea <int>,
    ## #   WoodDeckSF <int>, OpenPorchSF <int>, EncPorchSF <int>, PoolArea <int>,
    ## #   MiscVal <int>, MoSold <int>, YrSold <int>, SalePrice <int>, age <int>, …
…
-   Created a tibble named `housingFactor` which contains all of the
    character variables from the original data

``` r
housingFactor <- housingData %>%
  
  #converting the character data into factors
  transmute_if(is.character, as.factor) %>%
  #converting the dataframe to tibble
  as_tibble()

housingFactor
```

    ## # A tibble: 1,000 × 38
    ##    MSZon…¹ Alley LotSh…² LandC…³ LotCo…⁴ LandS…⁵ Neigh…⁶ Condi…⁷ BldgT…⁸ House…⁹
    ##    <fct>   <fct> <fct>   <fct>   <fct>   <fct>   <fct>   <fct>   <fct>   <fct>  
    ##  1 RL      <NA>  IR1     Lvl     CulDSac Gtl     NAmes   Norm    1Fam    1Story 
    ##  2 RL      <NA>  IR1     Low     Inside  Mod     ClearCr Norm    1Fam    1Story 
    ##  3 RL      <NA>  IR1     Lvl     other   Gtl     Sawyer  Feedr   1Fam    1Story 
    ##  4 RL      <NA>  IR1     Bnk     Inside  Gtl     Crawfor Norm    1Fam    2Story 
    ##  5 RL      <NA>  Reg     Lvl     Inside  Gtl     NAmes   Norm    1Fam    1Story 
    ##  6 RL      <NA>  Reg     Lvl     Inside  Gtl     CollgCr Norm    1Fam    2Story 
    ##  7 RL      <NA>  Reg     Lvl     Corner  Gtl     Sawyer  Norm    1Fam    1Story 
    ##  8 RM      Pave  IR1     Lvl     Corner  Gtl     OldTown Norm    1Fam    2Story 
    ##  9 RL      <NA>  Reg     Lvl     Inside  Mod     NAmes   Norm    1Fam    2Story 
    ## 10 RL      <NA>  IR1     Lvl     Inside  Gtl     Gilbert Norm    1Fam    2Story 
    ## # … with 990 more rows, 28 more variables: RoofStyle <fct>, Exterior1st <fct>,
    ## #   Exterior2nd <fct>, MasVnrType <fct>, ExterQual <fct>, ExterCond <fct>,
    ## #   Foundation <fct>, BsmtQual <fct>, BsmtCond <fct>, BsmtExposure <fct>,
    ## #   BsmtFinType1 <fct>, BsmtFinType2 <fct>, Heating <fct>, HeatingQC <fct>,
    ## #   CentralAir <fct>, Electrical <fct>, KitchenQual <fct>, Functional <fct>,
    ## #   FireplaceQu <fct>, GarageType <fct>, GarageFinish <fct>, GarageQual <fct>,
    ## #   GarageCond <fct>, PavedDrive <fct>, PoolQC <fct>, Fence <fct>, …
…
